# Logfile created on 2023-11-02 16:57:35 +0000 by logger.rb/v1.4.3
{"severity":"INFO","time":"2023-11-02T16:57:35.820Z","gitlab_throttle_user_allowlist":[]}
{"severity":"INFO","time":"2023-11-02T16:58:03.694Z","gitlab_throttle_user_allowlist":[]}
{"severity":"INFO","time":"2023-11-02T16:58:26.272Z","gitlab_throttle_user_allowlist":[]}
{"severity":"INFO","time":"2023-11-02T16:58:34.859Z","gitlab_throttle_user_allowlist":[]}
{"severity":"INFO","time":"2023-11-02T17:00:31.880Z","gitlab_throttle_user_allowlist":[]}
{"severity":"INFO","time":"2023-11-02T17:00:38.971Z","gitlab_throttle_user_allowlist":[]}
{"severity":"INFO","time":"2023-11-02T17:01:23.247Z","gitlab_throttle_user_allowlist":[]}
{"severity":"INFO","time":"2023-11-02T17:08:18.106Z","gitlab_throttle_user_allowlist":[]}
{"severity":"INFO","time":"2023-11-02T17:09:59.084Z","gitlab_throttle_user_allowlist":[]}
{"severity":"INFO","time":"2023-11-02T17:37:53.512Z","gitlab_throttle_user_allowlist":[]}
{"severity":"INFO","time":"2023-11-02T17:37:59.481Z","gitlab_throttle_user_allowlist":[]}
{"severity":"INFO","time":"2023-11-02T17:38:42.119Z","gitlab_throttle_user_allowlist":[]}
{"severity":"INFO","time":"2023-11-02T17:40:55.561Z","gitlab_throttle_user_allowlist":[]}
{"severity":"INFO","time":"2023-11-02T17:41:02.877Z","gitlab_throttle_user_allowlist":[]}
{"severity":"INFO","time":"2023-11-02T17:41:45.680Z","gitlab_throttle_user_allowlist":[]}
{"severity":"INFO","time":"2023-11-02T17:43:00.331Z","gitlab_throttle_user_allowlist":[]}
{"severity":"INFO","time":"2023-11-02T17:43:07.708Z","gitlab_throttle_user_allowlist":[]}
{"severity":"INFO","time":"2023-11-02T17:43:50.230Z","gitlab_throttle_user_allowlist":[]}
{"severity":"INFO","time":"2023-11-02T17:51:23.043Z","gitlab_throttle_user_allowlist":[]}
{"severity":"INFO","time":"2023-11-02T17:51:30.106Z","gitlab_throttle_user_allowlist":[]}
{"severity":"INFO","time":"2023-11-02T17:52:12.972Z","gitlab_throttle_user_allowlist":[]}
{"severity":"INFO","time":"2023-11-02T17:58:52.944Z","gitlab_throttle_user_allowlist":[]}
{"severity":"INFO","time":"2023-11-02T17:59:00.269Z","gitlab_throttle_user_allowlist":[]}
{"severity":"INFO","time":"2023-11-02T17:59:43.853Z","gitlab_throttle_user_allowlist":[]}
{"severity":"INFO","time":"2023-11-02T18:04:42.319Z","gitlab_throttle_user_allowlist":[]}
{"severity":"INFO","time":"2023-11-02T18:04:49.664Z","gitlab_throttle_user_allowlist":[]}
{"severity":"INFO","time":"2023-11-02T18:05:33.028Z","gitlab_throttle_user_allowlist":[]}
{"severity":"INFO","time":"2023-11-02T18:10:08.456Z","gitlab_throttle_user_allowlist":[]}
{"severity":"INFO","time":"2023-11-02T18:10:15.748Z","gitlab_throttle_user_allowlist":[]}
{"severity":"INFO","time":"2023-11-02T18:11:00.572Z","gitlab_throttle_user_allowlist":[]}
{"severity":"INFO","time":"2023-11-02T18:31:40.069Z","gitlab_throttle_user_allowlist":[]}
{"severity":"INFO","time":"2023-11-02T18:31:46.527Z","gitlab_throttle_user_allowlist":[]}
{"severity":"INFO","time":"2023-11-02T18:32:30.078Z","gitlab_throttle_user_allowlist":[]}
